…
    ## # A tibble: 2 × 5
    ##   term            estimate std.error statistic  p.value
    ##   <chr>              <dbl>     <dbl>     <dbl>    <dbl>
    ## 1 (Intercept)        -2.29    0.158      -14.5 2.06e-46
    ## 2 height_range_id     5.22    0.0809      64.6 0

``` r
#here we have created a tibble showing standard error, and p-values. The p value is very very small so we can say that there is a statistical association between height and diameter for the Magnolia trees. 

#Predicting Values 
augment(my_lm) %>%
  print(n=5)
```

    ## # A tibble: 3,715 × 8
    ##   diameter height_range_id .fitted  .resid     .hat .sigma      .cooksd .std.r…¹
    ##      <dbl>           <dbl>   <dbl>   <dbl>    <dbl>  <dbl>        <dbl>    <dbl>
    ## 1     6                  2    8.16 -2.16   0.000289   3.92 0.0000439     -0.551 
    ## 2     7.75               2    8.16 -0.407  0.000289   3.92 0.00000156    -0.104 
    ## 3     3                  1    2.93  0.0657 0.000529   3.92 0.0000000745   0.0168
    ## 4     3                  2    8.16 -5.16   0.000289   3.92 0.000251      -1.32  
    ## 5     3                  2    8.16 -5.16   0.000289   3.92 0.000251      -1.32  
    ## # … with 3,710 more rows, and abbreviated variable name ¹​.std.resid
…
