…
**Question 3: Does genus affect the diameter of the tree? i.e. is there
a particular genus with larger tree diameter?**

Summarizing Task 1

``` r
#After trying to complete this task for all genus, I realized that there are too many and it would make sense to select only a few genera and complete the analysis on that. So first I will filter the dataset to narrow it down to only 5 randomly selected genera. 

vancouver_trees_genus <- vancouver_trees %>% filter(genus_name %in% c("NYSSA", "FAGUS", "ACER", "POPULUS", "MAGNOLIA"))
vancouver_trees_genus
```

    ## # A tibble: 45,585 × 20
    ##    tree_id civic_number std_st…¹ genus…² speci…³ culti…⁴ commo…⁵ assig…⁶ root_…⁷
    ##      <dbl>        <dbl> <chr>    <chr>   <chr>   <chr>   <chr>   <chr>   <chr>  
    ##  1  149604         5032 WINDSOR… ACER    CAMPES… <NA>    HEDGE … N       N      
    ##  2  149617         4909 SHERBRO… ACER    PLATAN… COLUMN… COLUMN… N       N      
    ##  3  149618         4925 SHERBRO… ACER    PLATAN… COLUMN… COLUMN… N       N      
    ##  4  149619         4969 SHERBRO… ACER    PLATAN… COLUMN… COLUMN… N       N      
    ##  5  149640         6968 SELKIRK… ACER    PLATAN… COLUMN… COLUMN… N       N      
    ##  6  149680         5311 WINDSOR… ACER    CAMPES… <NA>    HEDGE … N       N      
    ##  7  149683         7011 SELKIRK… ACER    PLATAN… COLUMN… COLUMN… N       N      
    ##  8  149684         1223 W 54TH … ACER    PLATAN… COLUMN… COLUMN… N       N      
    ##  9  149686         5007 WINDSOR… ACER    CAMPES… <NA>    HEDGE … N       N      
    ## 10  149694         1292 W 49TH … ACER    PLATAN… COLUMN… COLUMN… N       N      
    ## # … with 45,575 more rows, 11 more variables: plant_area <chr>,
    ## #   on_street_block <dbl>, on_street <chr>, neighbourhood_name <chr>,
    ## #   street_side_name <chr>, height_range_id <dbl>, diameter <dbl>, curb <chr>,
    ## #   date_planted <date>, longitude <dbl>, latitude <dbl>, and abbreviated
    ## #   variable names ¹​std_street, ²​genus_name, ³​species_name, ⁴​cultivar_name,
    ## #   ⁵​common_name, ⁶​assigned, ⁷​root_barrier
…
